…
### EJEMPLO DE USO

#### Explorar datos disponibles con `show_available_elections()`

La función `show_available_elections()` muestra las elecciones disponibles para descarga. Por defecto el parámetro `viewer = FALSE` imprime el resultado en consola. Si en cambio escribimos `viewer = TRUE` los datos se presentan en el _Viewer_ de `RStudio` y quedan a mano como tabla formateada y con la capacidad de ordenar y filtrar valores. 

```r

library(polAr)

show_available_elections()

# A tibble: 21 x 4
   district   category round year 
   <chr>      <chr>    <chr> <chr>
 1 arg        presi    paso  2011 
 2 caba       dip      paso  2011 
 3 catamarca  dip      gral  2015 
 4 chubut     dip      paso  2013 
 5 cordoba    sen      paso  2015 
 6 corrientes dip      gral  2017 
 7 erios      dip      gral  2013 
 8 formosa    dip      gral  2011 
 9 jujuy      sen      gral  2017 
10 neuquen    dip      gral  2013 
# ... with 11 more rows
…
Otra alternativa es usar la función auxiliar `get_long()` para conseguir la misma transformación,  si los datos ya habían sido guardados como un objeto en formato ancho (*wide*). 

Este sería el caso haciendo una llamada similar a la del ejemplo anterior pero ahora a nivel `departamento`y guardandola en un objeto con nombre `data`:  


`data <- get_election_data(district = "caba", category = "dip", round = "paso", year = "2011", level = "departamento")`, donde, por defecto `long = FALSE`.


Usamos la función auxiliar para convertir el formato de `data`: 

```r
data %>% 
  get_long() 

# A tibble: 210 x 9
# Groups:   codprov, depto, coddepto [15]
#  codprov    depto     coddepto electores category round year  listas votos
#  <chr>     <chr>     <chr>        <dbl> <chr>    <chr> <chr> <chr>  <dbl>
#  1 01      Comuna 01 001         185778 dip      paso  2011  0023   13071
#  2 01      Comuna 01 001         185778 dip      paso  2011  0036    5425
#  3 01      Comuna 01 001         185778 dip      paso  2011  0179     563
#  4 01      Comuna 01 001         185778 dip      paso  2011  0302    3784
#  5 01      Comuna 01 001         185778 dip      paso  2011  0501   37804
#  6 01      Comuna 01 001         185778 dip      paso  2011  0504    6829
#  7 01      Comuna 01 001         185778 dip      paso  2011  0508    2876
#  8 01      Comuna 01 001         185778 dip      paso  2011  0509    8847
#  9 01      Comuna 01 001         185778 dip      paso  2011  0510   10629
# 10 01      Comuna 01 001         185778 dip      paso  2011  0517    5094
# ... with 200 more rows
```
…
