{polAr} Política Argentina usando R • polAr
…
compute_nep(): Calcula el Numero Efectivo de Partidos Politicos. Es sensible al nivel de agregación de la data obtenida.

compute_competitiveness(): Calcula el nivel de competencia en una elección (0 , 1). Un parámetro level permite calcularlo para los distintos niveles de agregación presentes en la data.

EJEMPLO DE USO

Explorar datos disponibles con show_available_elections()

La función show_available_elections() muestra las elecciones disponibles para descarga. Por defecto el parámetro viewer = FALSE imprime el resultado en consola. Si en cambio escribimos viewer = TRUE los datos se presentan en el Viewer de RStudio y quedan a mano como tabla formateada y con la capacidad de ordenar y filtrar valores.

library(polAr)

show_available_elections()

# A tibble: 21 x 4
#  Distrito   Categoria Turno Anio 
#  <chr>      <chr>     <chr> <chr>
#    1 arg        presi     paso  2011 
#  2 caba       dip       paso  2011 
#  3 catamarca  dip       gral  2015 
#  4 chubut     dip       paso  2013 
#  5 cordoba    sen       paso  2015 
#  6 corrientes dip       gral  2017 
#  7 erios      dip       gral  2013 
#  8 formosa    dip       gral  2011 
#  9 jujuy      sen       gral  2017 
#  10 neuquen    dip       gral  2013 
# ... with 11 more row
…
También por defecto los datos se descargan en formato wide. Pero se incluye la opción de cambiar a un formato long usando long = TRUE como parametro de get_election_data(... , long = T) a la hora de descargar los datos.

Otra alternativa es usar la función auxiliar get_long() para conseguir la misma transformación, si los datos ya habían sido guardados como un objeto en formato ancho (wide).

Este sería el caso si la llamada del ejemplo anterior hubiese sido guardada en un objeto con nombre data:

data <- get_election_data(district = "caba", category = "dip", round = "paso", year = "2011", level = "departamento" ), donde, por defecto long = FALSE.

Usamos la función auxiliar para convertir el formato de data:

data %>%
  get_long()

# A tibble: 210 x 9
# Groups:   codprov, depto, coddepto [15]
#  codprov    depto     coddepto electores category round year  listas votos
#  <chr>     <chr>     <chr>        <dbl> <chr>    <chr> <chr> <chr>  <dbl>
#  1 01      Comuna 01 001         185778 dip      paso  2011  0023   13071
#  2 01      Comuna 01 001         185778 dip      paso  2011  0036    5425
#  3 01      Comuna 01 001         185778 dip      paso  2011  0179     563
#  4 01      Comuna 01 001         185778 dip      paso  2011  0302    3784
#  5 01      Comuna 01 001         185778 dip      paso  2011  0501   37804
#  6 01      Comuna 01 001         185778 dip      paso  2011  0504    6829
#  7 01      Comuna 01 001         185778 dip      paso  2011  0508    2876
#  8 01      Comuna 01 001         185778 dip      paso  2011  0509    8847
#  9 01      Comuna 01 001         185778 dip      paso  2011  0510   10629
# 10 01      Comuna 01 001         185778 dip      paso  2011  0517    5094
# ... with 200 more rows

Obtener nombres de listas o partidos políticos con get_names()

Siguiendo el ejemplo anterior, una vez que data cambió a formato long se puede incorporar facilmente el nombre de los partios correspondientes al id de la columna listas con get_names():

data %>%
  get_long() %>%
  get_names()

# A tibble: 210 x 10
# Groups:   codprov, depto, coddepto [15]
# codprov   depto     coddepto electores category round year  listas votos nombre_lista                                     
# <chr>     <chr>     <chr>     <dbl>    <chr>    <chr> <chr> <chr>  <dbl> <chr>                                            
# 1 01      Comuna 01  001      185778    dip      paso  2011  0023   13071 UNION POPULAR                                    
# 2 01      Comuna 01  001      185778    dip      paso  2011  0036    5425 AUTONOMISTA                                      
# 3 01      Comuna 01  001      185778    dip      paso  2011  0179     563 ACCION CIUDADANA                                 
# 4 01      Comuna 01  001      185778    dip      paso  2011  0302    3784 DE LA CIUDAD EN ACCION                           
# 5 01      Comuna 01  001      185778    dip      paso  2011  0501   37804 ALIANZA FRENTE PARA LA VICTORIA                  
# 6 01      Comuna 01  001      185778    dip      paso  2011  0504    6829 ALIANZA UNION PARA EL DESARROLLO SOCIAL          
# 7 01      Comuna 01  001      185778    dip      paso  2011  0508    2876 ALIANZA PROYECTO SUR                             
# 8 01      Comuna 01  001      185778    dip      paso  2011  0509    8847 COMPROMISO FEDERAL                               
# 9 01      Comuna 01  001      185778    dip      paso  2011  0510   10629 FRENTE AMPLIO PROGRESISTA                        
#10 01      Comuna 01  001      185778    dip      paso  2011  0517    5094 ALIANZA FRENTE DE IZQUIERDA Y DE LOS TRABAJADORES
# ... with 200 more rows
…
