Data • polAr
…
library(polAr)

ELECTORAL

Explorar datos disponibles con show_available_elections() (Explore Data)

La función show_available_elections() muestra las elecciones disponibles para descarga. Por defecto el parámetro viewer = FALSE imprime el resultado en consola. Si en cambio escribimos viewer = TRUE los datos se presentan en el Viewer de RStudio y quedan a mano como tabla formateada y con la capacidad de ordenar y filtrar valores.

(show_available_elections () function displays available electoral data for download. By default the parameter viewer = FALSE prints the result in console. If instead we write viewer = TRUE data is presented in the RStudio Viewer as a handy formatted table and with the ability to sort and filter values).

library(polAr)

show_available_elections()
#> # A tibble: 425 x 5
#>    district category round  year  NOMBRE   
#>    <chr>    <chr>    <chr>  <chr> <chr>    
#>  1 arg      presi    balota 2015  ARGENTINA
#>  2 arg      presi    gral   2003  ARGENTINA
#>  3 arg      presi    gral   2007  ARGENTINA
#>  4 arg      presi    gral   2011  ARGENTINA
#>  5 arg      presi    gral   2015  ARGENTINA
#>  6 arg      presi    gral   2019  ARGENTINA
#>  7 arg      presi    paso   2011  ARGENTINA
#>  8 arg      presi    paso   2015  ARGENTINA
#>  9 arg      presi    paso   2019  ARGENTINA
#> 10 caba     dip      gral   2005  CABA     
#> # ... with 415 more rows
…
Usamos la función auxiliar para convertir el formato de data (We use the helper function to convert the format of data):

data %>%
  make_long()
#> # A tibble: 210 x 10
#> # Groups:   codprov, depto, coddepto [15]
#>    category round  year codprov name_prov depto  coddepto electores listas votos
#>    <chr>    <chr> <dbl> <chr>   <chr>     <chr>  <chr>        <dbl> <chr>  <dbl>
#>  1 dip      paso   2011 01      CABA      Comun~ 001         185778 0023   13071
#>  2 dip      paso   2011 01      CABA      Comun~ 001         185778 0036    5425
#>  3 dip      paso   2011 01      CABA      Comun~ 001         185778 0179     563
#>  4 dip      paso   2011 01      CABA      Comun~ 001         185778 0302    3784
#>  5 dip      paso   2011 01      CABA      Comun~ 001         185778 0501   37804
#>  6 dip      paso   2011 01      CABA      Comun~ 001         185778 0504    6829
#>  7 dip      paso   2011 01      CABA      Comun~ 001         185778 0508    2876
#>  8 dip      paso   2011 01      CABA      Comun~ 001         185778 0509    8847
#>  9 dip      paso   2011 01      CABA      Comun~ 001         185778 0510   10629
#> 10 dip      paso   2011 01      CABA      Comun~ 001         185778 0517    5094
#> # ... with 200 more rows

Obtener nombres de listas o partidos políticos con get_names() (Get parties names)

Siguiendo el ejemplo anterior, una vez que data cambió a formato long se puede incorporar facilmente el nombre de los partios correspondientes al id de la columna listas con get_names()

(Following the example above, once data has changed to long format, you can easily enter the names of the partitions corresponding to the id of the lists column with get_names()):

data %>%
  make_long %>%
  get_names()
#> # A tibble: 210 x 11
#> # Groups:   codprov, depto, coddepto [15]
#>    category round  year codprov name_prov depto coddepto electores listas votos
#>    <chr>    <chr> <dbl> <chr>   <chr>     <chr> <chr>        <dbl> <chr>  <dbl>
#>  1 dip      paso   2011 01      CABA      Comu~ 001         185778 0023   13071
#>  2 dip      paso   2011 01      CABA      Comu~ 001         185778 0036    5425
#>  3 dip      paso   2011 01      CABA      Comu~ 001         185778 0179     563
#>  4 dip      paso   2011 01      CABA      Comu~ 001         185778 0302    3784
#>  5 dip      paso   2011 01      CABA      Comu~ 001         185778 0501   37804
#>  6 dip      paso   2011 01      CABA      Comu~ 001         185778 0504    6829
#>  7 dip      paso   2011 01      CABA      Comu~ 001         185778 0508    2876
#>  8 dip      paso   2011 01      CABA      Comu~ 001         185778 0509    8847
#>  9 dip      paso   2011 01      CABA      Comu~ 001         185778 0510   10629
#> 10 dip      paso   2011 01      CABA      Comu~ 001         185778 0517    5094
#> # ... with 200 more rows, and 1 more variable: nombre_lista <chr>
…
