…
    compute_nep, compute_competitiveness, compute_disproportion

    Examples

 polAr::get_election_data(district = "caba",
                          category = "dip",
                          round = "gral",
                          year = 2007) -> caba_dip_2007
#> Warning: The `x` argument of `as_tibble.matrix()` must have unique column names if `.name_repair` is omitted as of tibble 2.0.0.
#> Using compatibility `.name_repair`.
#> This warning is displayed once every 8 hours.
#> Call `lifecycle::last_warnings()` to see where this warning was generated.

 caba_dip_2007
#> # A tibble: 32 x 8
#> # Groups:   codprov [1]
#>    category round  year codprov name_prov electores listas  votos
#>    <chr>    <chr> <dbl> <chr>   <chr>         <dbl> <chr>   <dbl>
#>  1 dip      gral   2007 01      CABA        2564950 0003   104599
#>  2 dip      gral   2007 01      CABA        2564950 0005     4634
#>  3 dip      gral   2007 01      CABA        2564950 0009    79154
#>  4 dip      gral   2007 01      CABA        2564950 0014    12107
#>  5 dip      gral   2007 01      CABA        2564950 0020    41071
#>  6 dip      gral   2007 01      CABA        2564950 0023     4409
#>  7 dip      gral   2007 01      CABA        2564950 0036    26889
#>  8 dip      gral   2007 01      CABA        2564950 0037     3177
#>  9 dip      gral   2007 01      CABA        2564950 0038    33654
#> 10 dip      gral   2007 01      CABA        2564950 0050   247836
#> # ... with 22 more rows
…
