…
show_available_bills(viewer = FALSE)

    Arguments

      viewer
      Por default es TRUE y  muestra una tabla formateada en el Viewer de RStudio. Cuando FALSE imprime en consola.

    See also

    plot_bill, get_bill_votes

    Examples

show_available_bills(viewer = FALSE)
#> # A tibble: 3,395 x 5
#>    id         descripcion                                    camara    mes  year
#>    <chr>      <chr>                                          <chr>   <dbl> <dbl>
#>  1 3641-Dipu~ Declarar la necesidad de la Reforma Parcial d~ Diputa~    12  1993
#>  2 3652-Dipu~ Declarar la necesidad de la Reforma Parcial d~ Diputa~    12  1993
#>  3 3651-Dipu~ Declarar la necesidad de la Reforma Parcial d~ Diputa~    12  1993
#>  4 3650-Dipu~ Declarar la necesidad de la Reforma Parcial d~ Diputa~    12  1993
#>  5 3649-Dipu~ Declarar la necesidad de la Reforma Parcial d~ Diputa~    12  1993
#>  6 3648-Dipu~ Declarar la necesidad de la Reforma Parcial d~ Diputa~    12  1993
#>  7 3647-Dipu~ Declarar la necesidad de la Reforma Parcial d~ Diputa~    12  1993
#>  8 3646-Dipu~ Declarar la necesidad de la Reforma Parcial d~ Diputa~    12  1993
#>  9 3645-Dipu~ Declarar la necesidad de la Reforma Parcial d~ Diputa~    12  1993
#> 10 3644-Dipu~ Declarar la necesidad de la Reforma Parcial d~ Diputa~    12  1993
#> # ... with 3,385 more rows
…
